{
  "components": [
    {
      "type": "content",
      "container": "main",
      "components": [
        {
          "type": "row",
          "components": [
            {
              "type": "col",
              "class": "col-md-12",
              "components": [
                {
                  "data": "",
                  "events": {
                    "cancel": [
                      {
                        "type": "back"
                      }
                    ],
                    "submit": [
                      {
                        "error": [
                          {
                            "detail": "Unable to create new Documento!",
                            "severity": "error",
                            "summary": "Error",
                            "type": "notify"
                          }
                        ],
                        "name": "sgsst.createDocumento",
                        "parameters": [
                          {
                            "name": "Documento",
                            "value": "${event}"
                          }
                        ],
                        "then": [
                          {
                            "type": "back"
                          }
                        ],
                        "type": "invoke"
                      }
                    ],
                    "loadData": [
                      {
                        "name": "sgsst.getTipoArchivos",
                        "condition": "event.property == 'Tipo_Archivo_Id'",
                        "parameters": [
                          {
                            "name": "$top",
                            "value": "${event.top}"
                          },
                          {
                            "name": "$skip",
                            "value": "${event.skip}"
                          },
                          {
                            "name": "$orderby",
                            "value": "${event.orderby}"
                          },
                          {
                            "name": "$filter",
                            "value": "${event.filter}"
                          },
                          {
                            "name": "$count",
                            "value": "true"
                          }
                        ],
                        "then": [
                          {
                            "name": "getTipoArchivosForTipo_Archivo_IdResult",
                            "type": "set",
                            "value": "${result.value}"
                          },
                          {
                            "name": "getTipoArchivosForTipo_Archivo_IdCount",
                            "type": "set",
                            "value": "result['@odata.count']"
                          }
                        ],
                        "type": "invoke"
                      },
                      {
                        "name": "sgsst.getEmpresas",
                        "condition": "event.property == 'Empresa_Id'",
                        "parameters": [
                          {
                            "name": "$top",
                            "value": "${event.top}"
                          },
                          {
                            "name": "$skip",
                            "value": "${event.skip}"
                          },
                          {
                            "name": "$orderby",
                            "value": "${event.orderby}"
                          },
                          {
                            "name": "$filter",
                            "value": "${event.filter}"
                          },
                          {
                            "name": "$count",
                            "value": "true"
                          }
                        ],
                        "then": [
                          {
                            "name": "getEmpresasForEmpresa_IdResult",
                            "type": "set",
                            "value": "${result.value}"
                          },
                          {
                            "name": "getEmpresasForEmpresa_IdCount",
                            "type": "set",
                            "value": "result['@odata.count']"
                          }
                        ],
                        "type": "invoke"
                      }
                    ]
                  },
                  "fields": [
                    {
                      "property": "Nombre",
                      "required": true,
                      "title": "Nombre",
                      "type": "string",
                      "maxLength": 200,
                      "requiredText": "is required"
                    },
                    {
                      "data": "${getTipoArchivosForTipo_Archivo_IdResult}",
                      "property": "Tipo_Archivo_Id",
                      "required": false,
                      "textProperty": "Nombre",
                      "title": "Tipo Archivo",
                      "type": "lookuppopup",
                      "valueProperty": "Id",
                      "placeholder": "Choose TipoArchivo",
                      "count": "${getTipoArchivosForTipo_Archivo_IdCount}",
                      "pageSize": "${getTipoArchivosForTipo_Archivo_IdPageSize}",
                      "requiredText": "is required"
                    },
                    {
                      "data": "${getEmpresasForEmpresa_IdResult}",
                      "property": "Empresa_Id",
                      "required": false,
                      "textProperty": "Nit",
                      "title": "Empresa",
                      "type": "lookuppopup",
                      "valueProperty": "Id",
                      "placeholder": "Choose Empresa",
                      "count": "${getEmpresasForEmpresa_IdCount}",
                      "pageSize": "${getEmpresasForEmpresa_IdPageSize}",
                      "requiredText": "is required"
                    },
                    {
                      "property": "Ruta",
                      "required": false,
                      "title": "Ruta",
                      "type": "string",
                      "maxLength": 200,
                      "requiredText": "is required"
                    },
                    {
                      "property": "Fecha_Mod",
                      "required": false,
                      "title": "Fecha Mod",
                      "type": "date",
                      "dateFormat": "mm/dd/yy",
                      "requiredText": "is required"
                    },
                    {
                      "property": "Fecha_Crea",
                      "required": false,
                      "title": "Fecha Crea",
                      "type": "date",
                      "dateFormat": "mm/dd/yy",
                      "requiredText": "is required"
                    }
                  ],
                  "name": "form0",
                  "type": "form"
                }
              ]
            }
          ]
        }
      ]
    }
  ],
  "events": {
    "load": [
      {
        "name": "getTipoArchivosForTipo_Archivo_IdPageSize",
        "type": "set",
        "value": "10"
      },
      {
        "name": "sgsst.getTipoArchivos",
        "parameters": [
          {
            "name": "$top",
            "value": "${getTipoArchivosForTipo_Archivo_IdPageSize}"
          },
          {
            "name": "$skip",
            "value": "0"
          },
          {
            "name": "$count",
            "value": "true"
          }
        ],
        "then": [
          {
            "name": "getTipoArchivosForTipo_Archivo_IdResult",
            "type": "set",
            "value": "${result.value}"
          },
          {
            "name": "getTipoArchivosForTipo_Archivo_IdCount",
            "type": "set",
            "value": "result['@odata.count']"
          }
        ],
        "type": "invoke"
      },
      {
        "name": "getEmpresasForEmpresa_IdPageSize",
        "type": "set",
        "value": "10"
      },
      {
        "name": "sgsst.getEmpresas",
        "parameters": [
          {
            "name": "$top",
            "value": "${getEmpresasForEmpresa_IdPageSize}"
          },
          {
            "name": "$skip",
            "value": "0"
          },
          {
            "name": "$count",
            "value": "true"
          }
        ],
        "then": [
          {
            "name": "getEmpresasForEmpresa_IdResult",
            "type": "set",
            "value": "${result.value}"
          },
          {
            "name": "getEmpresasForEmpresa_IdCount",
            "type": "set",
            "value": "result['@odata.count']"
          }
        ],
        "type": "invoke"
      }
    ]
  },
  "name": "Add Documento",
  "layout": "Main",
  "access": [
    "Authenticated"
  ]
}