{
  "components": [
    {
      "type": "content",
      "container": "main",
      "components": [
        {
          "type": "row",
          "components": [
            {
              "type": "col",
              "class": "col-md-12",
              "components": [
                {
                  "data": "",
                  "events": {
                    "cancel": [
                      {
                        "type": "back"
                      }
                    ],
                    "submit": [
                      {
                        "error": [
                          {
                            "detail": "Unable to create new Empresa!",
                            "severity": "error",
                            "summary": "Error",
                            "type": "notify"
                          }
                        ],
                        "name": "sgsst.createEmpresa",
                        "parameters": [
                          {
                            "name": "Empresa",
                            "value": "${event}"
                          }
                        ],
                        "then": [
                          {
                            "type": "back"
                          }
                        ],
                        "type": "invoke"
                      }
                    ],
                    "loadData": [
                      {
                        "name": "sgsst.getActividadEconomicas",
                        "condition": "event.property == 'Actividad_Economica_Id'",
                        "parameters": [
                          {
                            "name": "$top",
                            "value": "${event.top}"
                          },
                          {
                            "name": "$skip",
                            "value": "${event.skip}"
                          },
                          {
                            "name": "$orderby",
                            "value": "${event.orderby}"
                          },
                          {
                            "name": "$filter",
                            "value": "${event.filter}"
                          },
                          {
                            "name": "$count",
                            "value": "true"
                          }
                        ],
                        "then": [
                          {
                            "name": "getActividadEconomicasForActividad_Economica_IdResult",
                            "type": "set",
                            "value": "${result.value}"
                          },
                          {
                            "name": "getActividadEconomicasForActividad_Economica_IdCount",
                            "type": "set",
                            "value": "result['@odata.count']"
                          }
                        ],
                        "type": "invoke"
                      },
                      {
                        "name": "sgsst.getUbicacions",
                        "condition": "event.property == 'Ubicacion_Id'",
                        "parameters": [
                          {
                            "name": "$top",
                            "value": "${event.top}"
                          },
                          {
                            "name": "$skip",
                            "value": "${event.skip}"
                          },
                          {
                            "name": "$orderby",
                            "value": "${event.orderby}"
                          },
                          {
                            "name": "$filter",
                            "value": "${event.filter}"
                          },
                          {
                            "name": "$count",
                            "value": "true"
                          }
                        ],
                        "then": [
                          {
                            "name": "getUbicacionsForUbicacion_IdResult",
                            "type": "set",
                            "value": "${result.value}"
                          },
                          {
                            "name": "getUbicacionsForUbicacion_IdCount",
                            "type": "set",
                            "value": "result['@odata.count']"
                          }
                        ],
                        "type": "invoke"
                      },
                      {
                        "name": "sgsst.getEstadoEmpresas",
                        "condition": "event.property == 'Estado_Empresa_Id'",
                        "parameters": [
                          {
                            "name": "$top",
                            "value": "${event.top}"
                          },
                          {
                            "name": "$skip",
                            "value": "${event.skip}"
                          },
                          {
                            "name": "$orderby",
                            "value": "${event.orderby}"
                          },
                          {
                            "name": "$filter",
                            "value": "${event.filter}"
                          },
                          {
                            "name": "$count",
                            "value": "true"
                          }
                        ],
                        "then": [
                          {
                            "name": "getEstadoEmpresasForEstado_Empresa_IdResult",
                            "type": "set",
                            "value": "${result.value}"
                          },
                          {
                            "name": "getEstadoEmpresasForEstado_Empresa_IdCount",
                            "type": "set",
                            "value": "result['@odata.count']"
                          }
                        ],
                        "type": "invoke"
                      }
                    ]
                  },
                  "fields": [
                    {
                      "property": "Nit",
                      "required": true,
                      "title": "Nit",
                      "type": "string",
                      "maxLength": 20,
                      "requiredText": "is required"
                    },
                    {
                      "property": "RazonSocial",
                      "required": true,
                      "title": "Razon Social",
                      "type": "string",
                      "maxLength": 200,
                      "requiredText": "is required"
                    },
                    {
                      "data": "${getActividadEconomicasForActividad_Economica_IdResult}",
                      "property": "Actividad_Economica_Id",
                      "required": true,
                      "textProperty": "Nombre",
                      "title": "Actividad Economica",
                      "type": "lookuppopup",
                      "valueProperty": "Id",
                      "placeholder": "Choose ActividadEconomica",
                      "count": "${getActividadEconomicasForActividad_Economica_IdCount}",
                      "pageSize": "${getActividadEconomicasForActividad_Economica_IdPageSize}",
                      "requiredText": "is required"
                    },
                    {
                      "data": "${getUbicacionsForUbicacion_IdResult}",
                      "property": "Ubicacion_Id",
                      "required": true,
                      "textProperty": "Id",
                      "title": "Ubicacion",
                      "type": "lookuppopup",
                      "valueProperty": "Id",
                      "placeholder": "Choose Ubicacion",
                      "count": "${getUbicacionsForUbicacion_IdCount}",
                      "pageSize": "${getUbicacionsForUbicacion_IdPageSize}",
                      "requiredText": "is required"
                    },
                    {
                      "property": "Direccion",
                      "required": false,
                      "title": "Direccion",
                      "type": "string",
                      "requiredText": "is required"
                    },
                    {
                      "property": "Correo",
                      "required": true,
                      "title": "Correo",
                      "type": "string",
                      "maxLength": 200,
                      "requiredText": "is required"
                    },
                    {
                      "property": "Telefono",
                      "required": false,
                      "title": "Telefono",
                      "type": "string",
                      "maxLength": 20,
                      "requiredText": "is required"
                    },
                    {
                      "property": "Fax",
                      "required": false,
                      "title": "Fax",
                      "type": "string",
                      "maxLength": 200,
                      "requiredText": "is required"
                    },
                    {
                      "property": "Representante_Nombre",
                      "required": true,
                      "title": "Representante Nombre",
                      "type": "string",
                      "maxLength": 200,
                      "requiredText": "is required"
                    },
                    {
                      "property": "Representante_Documento",
                      "required": true,
                      "title": "Representante Documento",
                      "type": "string",
                      "maxLength": 200,
                      "requiredText": "is required"
                    },
                    {
                      "property": "Prima_Cotizacion_Mensual",
                      "required": false,
                      "title": "Prima Cotizacion Mensual",
                      "type": "number",
                      "requiredText": "is required",
                      "minText": "cannot be less than",
                      "maxText": "cannot be more than"
                    },
                    {
                      "property": "FechaCrea",
                      "required": true,
                      "title": "Fecha Crea",
                      "type": "date",
                      "dateFormat": "mm/dd/yy",
                      "requiredText": "is required"
                    },
                    {
                      "property": "FechaMod",
                      "required": false,
                      "title": "Fecha Mod",
                      "type": "date",
                      "dateFormat": "mm/dd/yy",
                      "requiredText": "is required"
                    },
                    {
                      "data": "${getEstadoEmpresasForEstado_Empresa_IdResult}",
                      "property": "Estado_Empresa_Id",
                      "required": false,
                      "textProperty": "Nombre",
                      "title": "Estado Empresa",
                      "type": "lookuppopup",
                      "valueProperty": "Id",
                      "placeholder": "Choose EstadoEmpresa",
                      "count": "${getEstadoEmpresasForEstado_Empresa_IdCount}",
                      "pageSize": "${getEstadoEmpresasForEstado_Empresa_IdPageSize}",
                      "requiredText": "is required"
                    }
                  ],
                  "name": "form0",
                  "type": "form"
                }
              ]
            }
          ]
        }
      ]
    }
  ],
  "events": {
    "load": [
      {
        "name": "getActividadEconomicasForActividad_Economica_IdPageSize",
        "type": "set",
        "value": "10"
      },
      {
        "name": "sgsst.getActividadEconomicas",
        "parameters": [
          {
            "name": "$top",
            "value": "${getActividadEconomicasForActividad_Economica_IdPageSize}"
          },
          {
            "name": "$skip",
            "value": "0"
          },
          {
            "name": "$count",
            "value": "true"
          }
        ],
        "then": [
          {
            "name": "getActividadEconomicasForActividad_Economica_IdResult",
            "type": "set",
            "value": "${result.value}"
          },
          {
            "name": "getActividadEconomicasForActividad_Economica_IdCount",
            "type": "set",
            "value": "result['@odata.count']"
          }
        ],
        "type": "invoke"
      },
      {
        "name": "getUbicacionsForUbicacion_IdPageSize",
        "type": "set",
        "value": "10"
      },
      {
        "name": "sgsst.getUbicacions",
        "parameters": [
          {
            "name": "$top",
            "value": "${getUbicacionsForUbicacion_IdPageSize}"
          },
          {
            "name": "$skip",
            "value": "0"
          },
          {
            "name": "$count",
            "value": "true"
          }
        ],
        "then": [
          {
            "name": "getUbicacionsForUbicacion_IdResult",
            "type": "set",
            "value": "${result.value}"
          },
          {
            "name": "getUbicacionsForUbicacion_IdCount",
            "type": "set",
            "value": "result['@odata.count']"
          }
        ],
        "type": "invoke"
      },
      {
        "name": "getEstadoEmpresasForEstado_Empresa_IdPageSize",
        "type": "set",
        "value": "10"
      },
      {
        "name": "sgsst.getEstadoEmpresas",
        "parameters": [
          {
            "name": "$top",
            "value": "${getEstadoEmpresasForEstado_Empresa_IdPageSize}"
          },
          {
            "name": "$skip",
            "value": "0"
          },
          {
            "name": "$count",
            "value": "true"
          }
        ],
        "then": [
          {
            "name": "getEstadoEmpresasForEstado_Empresa_IdResult",
            "type": "set",
            "value": "${result.value}"
          },
          {
            "name": "getEstadoEmpresasForEstado_Empresa_IdCount",
            "type": "set",
            "value": "result['@odata.count']"
          }
        ],
        "type": "invoke"
      }
    ]
  },
  "name": "Add Empresa",
  "layout": "Main",
  "access": [
    "Authenticated"
  ]
}