{
  "components": [
    {
      "type": "content",
      "container": "main",
      "components": [
        {
          "type": "heading",
          "name": "pageTitle",
          "size": "H1",
          "text": "Enfermedades Info Demofraficas"
        },
        {
          "type": "row",
          "components": [
            {
              "type": "col",
              "class": "col-md-12",
              "components": [
                {
                  "name": "grid0",
                  "allowDelete": true,
                  "confirmDelete": true,
                  "allowAdd": true,
                  "allowFiltering": true,
                  "allowMultiSorting": false,
                  "allowPaging": true,
                  "allowSorting": true,
                  "count": "${getEnfermedadesInfoDemofraficasCount}",
                  "data": "${getEnfermedadesInfoDemofraficasResult}",
                  "events": {
                    "loadData": [
                      {
                        "name": "sgsst.getEnfermedadesInfoDemofraficas",
                        "parameters": [
                          {
                            "name": "$top",
                            "value": "event.top"
                          },
                          {
                            "name": "$skip",
                            "value": "event.skip"
                          },
                          {
                            "name": "$count",
                            "value": "event.top != null && event.skip != null"
                          },
                          {
                            "name": "$filter",
                            "value": "${event.filter}"
                          },
                          {
                            "name": "$orderby",
                            "value": "${event.orderby}"
                          },
                          {
                            "name": "$expand",
                            "value": "Enfermedade,InfoDemografica"
                          }
                        ],
                        "then": [
                          {
                            "name": "getEnfermedadesInfoDemofraficasResult",
                            "type": "set",
                            "value": "${result.value}"
                          },
                          {
                            "name": "getEnfermedadesInfoDemofraficasCount",
                            "type": "set",
                            "value": "event.top != null && event.skip != null ? result['@odata.count'] : ${result.value.length}"
                          }
                        ],
                        "type": "invoke"
                      }
                    ],
                    "delete": [
                      {
                        "error": [
                          {
                            "detail": "Unable to delete EnfermedadesInfoDemofrafica",
                            "severity": "error",
                            "summary": "Error",
                            "type": "notify"
                          }
                        ],
                        "name": "sgsst.deleteEnfermedadesInfoDemofrafica",
                        "parameters": [
                          {
                            "name": "Enfermedad_Id",
                            "value": "${event.Enfermedad_Id}"
                          },
                          {
                            "name": "Info_Demografica_Id",
                            "value": "${event.Info_Demografica_Id}"
                          }
                        ],
                        "then": [
                          {
                            "detail": "EnfermedadesInfoDemofrafica deleted!",
                            "severity": "success",
                            "summary": "Success",
                            "type": "notify"
                          }
                        ],
                        "type": "invoke"
                      }
                    ],
                    "add": [
                      {
                        "path": "add-enfermedades-info-demofrafica",
                        "type": "popup"
                      }
                    ],
                    "rowSelect": [
                      {
                        "parameters": [
                          {
                            "name": "Enfermedad_Id",
                            "value": "${event.Enfermedad_Id}"
                          },
                          {
                            "name": "Info_Demografica_Id",
                            "value": "${event.Info_Demografica_Id}"
                          }
                        ],
                        "path": "edit-enfermedades-info-demofrafica",
                        "type": "popup"
                      }
                    ]
                  },
                  "title": "",
                  "columns": [
                    {
                      "format": "int64",
                      "property": "Enfermedad_Id",
                      "sortProperty": "Enfermedade.Nombre",
                      "filterProperty": "Enfermedade.Nombre",
                      "template": "${data.Enfermedade?.Nombre}",
                      "title": "Enfermedade",
                      "type": "string"
                    },
                    {
                      "format": "int64",
                      "property": "Info_Demografica_Id",
                      "sortProperty": "InfoDemografica.Cargo",
                      "filterProperty": "InfoDemografica.Cargo",
                      "template": "${data.InfoDemografica?.Cargo}",
                      "title": "Info Demografica",
                      "type": "string"
                    }
                  ],
                  "type": "grid",
                  "confirmDeleteText": "Are you sure you want to delete this record?",
                  "confirmDeleteTitle": "Confirmation",
                  "confirmDeleteOkText": "Ok",
                  "confirmDeleteCancelText": "Cancel",
                  "emptyText": "No records to display.",
                  "addText": "Add"
                }
              ]
            }
          ]
        }
      ]
    }
  ],
  "events": {
    "load": [
      {
        "type": "execute",
        "code": "this.grid0.load();"
      }
    ]
  },
  "name": "Enfermedades Info Demofraficas",
  "layout": "Main",
  "access": [
    "Authenticated"
  ]
}